x,R
1.002807,36.93142
1.012821,36.92844
1.045358,36.56967
1.046689,36.41743
1.048693,36.47549
1.053475,36.27045
1.056694,36.11409
1.071826,36.34699
1.076829,36.23643
1.179673,35.09724
1.180348,34.91658
1.248479,34.74024
1.342129,34.61184
1.342813,34.85822
1.411264,34.96014
1.412972,34.98958
1.419847,34.95878
1.481201,34.8938
1.490498,35.09986
1.492391,35.01513
1.50553,34.90222
1.521675,35.08723
1.526847,34.90122
1.565154,34.81841
1.791118,33.13673
1.804565,33.11857
1.80828,33.16492
1.828485,33.07932
1.852615,33.04216
1.982415,33.62041
